3.912000034 0.996000008658
4.03200003505 0.984000008553
4.04400003515 0.996000008658
4.05600003526 0.996000008658
4.06800003536 1.00800000876
4.08000003546 1.00800000876
4.09200003557 1.02000000887
4.10400003567 1.02000000887
4.11600003578 1.02000000887
4.12800003588 1.03200000897
4.14000003599 1.03200000897
4.15200003609 1.03200000897
4.16400003619 1.03200000897
4.1760000363 1.04400000907
4.1880000364 1.04400000907
4.20000003651 1.04400000907
4.21200003661 1.04400000907
4.22400003672 1.04400000907
4.23600003682 1.04400000907
4.24800003693 1.04400000907
4.26000003703 1.04400000907
4.27200003713 1.04400000907
4.28400003724 1.04400000907
4.29600003734 1.04400000907
4.30800003745 1.04400000907
4.32000003755 1.04400000907
4.33200003766 1.04400000907
4.34400003776 1.04400000907
4.35600003786 1.04400000907
4.36800003797 1.04400000907
4.38000003807 1.04400000907
4.39200003818 1.04400000907
4.40400003828 1.04400000907
4.41600003839 1.04400000907
4.42800003849 1.04400000907
4.44000003859 1.04400000907
4.4520000387 1.04400000907
4.4640000388 1.04400000907
4.47600003891 1.04400000907
4.48800003901 1.04400000907
4.50000003912 1.04400000907
4.51200003922 1.04400000907
4.52400003932 1.04400000907
4.53600003943 1.04400000907
4.54800003953 1.04400000907
4.56000003964 1.04400000907
4.57200003974 1.04400000907
4.58400003985 1.04400000907
4.59600003995 1.04400000907
4.60800004005 1.04400000907
4.62000004016 1.04400000907
4.63200004026 1.04400000907
4.64400004037 1.04400000907
4.65600004047 1.04400000907
4.66800004058 1.04400000907
4.68000004068 1.04400000907
4.69200004078 1.04400000907
4.70400004089 1.04400000907
4.71600004099 1.04400000907
4.7280000411 1.04400000907
4.7400000412 1.04400000907
4.75200004131 1.04400000907
4.76400004141 1.04400000907
4.77600004151 1.04400000907
4.78800004162 1.04400000907
4.80000004172 1.05600000918
4.81200004183 1.06800000928
4.82400004193 1.08000000939
4.83600004204 1.08000000939
4.84800004214 1.09200000949
4.86000004224 1.1040000096
4.87200004235 1.1160000097
5.14800004475 1.99200001732
5.14800004475 1.99200001732
4.88400004245 1.1040000096
4.87200004235 1.09200000949
4.86000004224 1.08000000939
4.84800004214 1.06800000928
4.83600004204 1.05600000918
4.82400004193 1.05600000918
4.81200004183 1.04400000907
4.80000004172 1.04400000907
4.78800004162 1.04400000907
4.77600004151 1.03200000897
4.76400004141 1.03200000897
4.75200004131 1.03200000897
4.7400000412 1.03200000897
4.7280000411 1.03200000897
4.71600004099 1.03200000897
4.70400004089 1.03200000897
4.69200004078 1.03200000897
4.68000004068 1.03200000897
4.66800004058 1.03200000897
4.65600004047 1.03200000897
4.64400004037 1.03200000897
4.63200004026 1.03200000897
4.62000004016 1.03200000897
4.60800004005 1.03200000897
4.59600003995 1.03200000897
4.58400003985 1.03200000897
4.57200003974 1.03200000897
4.56000003964 1.03200000897
4.54800003953 1.03200000897
4.53600003943 1.03200000897
4.52400003932 1.03200000897
4.51200003922 1.03200000897
4.50000003912 1.03200000897
4.48800003901 1.03200000897
4.47600003891 1.03200000897
4.4640000388 1.03200000897
4.4520000387 1.03200000897
4.44000003859 1.03200000897
4.42800003849 1.03200000897
4.41600003839 1.03200000897
4.40400003828 1.03200000897
4.39200003818 1.03200000897
4.38000003807 1.03200000897
4.36800003797 1.03200000897
4.35600003786 1.03200000897
4.34400003776 1.03200000897
4.33200003766 1.03200000897
4.32000003755 1.03200000897
4.30800003745 1.03200000897
4.29600003734 1.03200000897
4.28400003724 1.03200000897
4.27200003713 1.03200000897
4.26000003703 1.03200000897
4.24800003693 1.03200000897
4.23600003682 1.03200000897
4.22400003672 1.03200000897
4.21200003661 1.03200000897
4.20000003651 1.03200000897
4.1880000364 1.03200000897
4.1760000363 1.03200000897
4.16400003619 1.03200000897
4.15200003609 1.03200000897
4.14000003599 1.02000000887
4.12800003588 1.02000000887
4.11600003578 1.02000000887
4.10400003567 1.02000000887
4.09200003557 1.00800000876
4.08000003546 1.00800000876
4.06800003536 0.996000008658
4.05600003526 0.996000008658
4.04400003515 0.984000008553
4.00800003484 0.936000008136
3.99600003473 0.900000007823
3.98400003463 0.86400000751
3.97200003453 0.828000007197
3.96000003442 0.768000006676
3.94800003432 0.684000005946
3.93600003421 0.264000002295
4.1880000364 -1.1040000096
4.21200003661 -1.14000000991
4.23600003682 -1.17600001022
4.26000003703 -1.21200001054
4.28400003724 -1.24800001085
4.30800003745 -1.28400001116
4.33200003766 -1.32000001147
4.35600003786 -1.35600001179
4.38000003807 -1.3920000121
4.48800003901 -3.50400003046
4.48800003901 -3.50400003046
2.4960000217 -4.15200003609
2.4960000217 -4.15200003609
1.15200001001 -3.81600003317
1.1280000098 -3.80400003307
1.09200000949 -3.78000003286
-0.324000002816 -1.83600001596
-0.336000002921 -1.80000001565
-0.372000003234 -1.75200001523
-0.408000003546 -1.72800001502
-1.50000001304 -1.71600001492
-1.52400001325 -1.72800001502
-2.00400001742 -2.00400001742
-2.00400001742 -2.00400001742
-1.45200001262 1.52400001325
-1.44000001252 2.66400002316
-1.45200001262 2.70000002347
-1.99200001732 3.25200002827
-2.02800001763 3.27600002848
-2.11200001836 3.28800002858
-2.55600002222 3.12000002712
