2.11 -4.14
2.10000001825 -4.14000003599
1.15200001001 -3.81600003317
1.1280000098 -3.80400003307
0.276000002399 -2.96400002576
-1.44000001252 2.66400002316
-1.45200001262 2.70000002347
-1.99200001732 3.25200002827
-2.02800001763 3.27600002848
-2.11200001836 3.28800002858
-2.55600002222 3.12000002712
-2.55 3.13
