-4.8 -3.6
-4.80000004172 -3.60000003129
-5.16000004485 -2.54400002211
-5.17200004496 -2.5200000219
-5.18400004506 -1.41600001231
-3.80400003307 2.65200002305
-3.78000003286 2.71200002357
-3.24000002816 3.26400002837
-3.21600002795 3.27600002848
-3.10800002702 3.28800002858
-2.55600002222 3.12000002712
-2.55 3.13
