2.11 -4.14
2.10000001825 -4.14000003599
2.41200002097 -3.81600003317
3.58800003119 -1.27200001106
3.60000003129 -1.23600001074
3.93600003421 0.624000005424
3.94800003432 0.708000006154
3.96000003442 0.792000006884
3.97200003453 0.828000007197
3.98400003463 0.86400000751
3.99600003473 0.900000007823
4.03200003505 0.984000008553
4.04400003515 0.996000008658
4.05600003526 0.996000008658
4.06800003536 1.00800000876
4.08000003546 1.00800000876
4.09200003557 1.02000000887
4.10400003567 1.02000000887
4.11600003578 1.02000000887
4.12800003588 1.03200000897
4.14000003599 1.03200000897
4.15200003609 1.03200000897
4.16400003619 1.03200000897
4.1760000363 1.04400000907
4.1880000364 1.04400000907
4.20000003651 1.04400000907
4.21200003661 1.04400000907
4.22400003672 1.04400000907
4.23600003682 1.04400000907
4.24800003693 1.04400000907
4.26000003703 1.04400000907
4.27200003713 1.04400000907
4.28400003724 1.04400000907
4.29600003734 1.04400000907
4.30800003745 1.04400000907
4.32000003755 1.04400000907
4.33200003766 1.04400000907
4.34400003776 1.04400000907
4.35600003786 1.04400000907
4.36800003797 1.04400000907
4.38000003807 1.04400000907
4.39200003818 1.04400000907
4.40400003828 1.04400000907
4.41600003839 1.04400000907
4.42800003849 1.04400000907
4.44000003859 1.04400000907
4.4520000387 1.04400000907
4.4640000388 1.04400000907
4.47600003891 1.04400000907
4.48800003901 1.04400000907
4.50000003912 1.04400000907
4.51200003922 1.04400000907
4.52400003932 1.04400000907
4.53600003943 1.04400000907
4.54800003953 1.04400000907
4.56000003964 1.04400000907
4.57200003974 1.04400000907
4.58400003985 1.04400000907
4.59600003995 1.04400000907
4.60800004005 1.04400000907
4.62000004016 1.04400000907
4.63200004026 1.04400000907
4.64400004037 1.04400000907
4.65600004047 1.04400000907
4.66800004058 1.04400000907
4.68000004068 1.04400000907
4.69200004078 1.04400000907
4.70400004089 1.04400000907
4.71600004099 1.04400000907
4.7280000411 1.04400000907
4.7400000412 1.04400000907
4.75200004131 1.04400000907
4.76400004141 1.04400000907
4.77600004151 1.04400000907
4.78800004162 1.04400000907
4.80000004172 1.05600000918
4.81200004183 1.06800000928
4.82400004193 1.08000000939
4.83600004204 1.08000000939
4.84800004214 1.09200000949
4.86000004224 1.1040000096
4.87200004235 1.1160000097
5.14800004475 1.99200001732
5.15 2.0
